#Ins 0=halt 1=cont 2=loop 3=endloop   
#Note: PC is decimal; bitpats,delay,ins/data are hex  
#PC set bitpat clr bitpat       delay  ins/data
Num Instruction Lines =   10         #  IDDDDD
000 0x00000008 0xfffffff7  0x00000007 0x100000 
001 0x00000008 0xfffffff7  0x00000007 0x200001 
002 0x0000000a 0xfffffff5  0x00000002 0x2001f4 
003 0x0000001b 0xffffffe4  0x00000007 0x100000 
004 0x0000000a 0xfffffff5  0x00000007 0x300002 
005 0x0000000a 0xfffffff5  0x00000002 0x100000 
006 0x00000008 0xfffffff7  0x00002708 0x100000 
007 0x0000004c 0xffffffb3  0x00000007 0x300001 
008 0x00000008 0xfffffff7  0x00000002 0x100000 
009 0x00000008 0xfffffff7  0x00000003 0x000000 
