%!PS-Adobe-2.0
%%Title: pol_hardware.ps
%%Creator: fig2dev Version 3.2 Patchlevel 3d
%%CreationDate: Fri May 21 13:56:30 2004
%%For: renee@monami.Triumf.CA (Renee Poutissou)
%%Orientation: Landscape
%%Pages: 1
%%BoundingBox: 0 0 612 792
%%BeginSetup
%%IncludeFeature: *PageSize Letter
%%EndSetup
%%Magnification: 1.0000
%%EndComments
/$F2psDict 200 dict def
$F2psDict begin
$F2psDict /mtrx matrix put
/col-1 {0 setgray} bind def
/col0 {0.000 0.000 0.000 srgb} bind def
/col1 {0.000 0.000 1.000 srgb} bind def
/col2 {0.000 1.000 0.000 srgb} bind def
/col3 {0.000 1.000 1.000 srgb} bind def
/col4 {1.000 0.000 0.000 srgb} bind def
/col5 {1.000 0.000 1.000 srgb} bind def
/col6 {1.000 1.000 0.000 srgb} bind def
/col7 {1.000 1.000 1.000 srgb} bind def
/col8 {0.000 0.000 0.560 srgb} bind def
/col9 {0.000 0.000 0.690 srgb} bind def
/col10 {0.000 0.000 0.820 srgb} bind def
/col11 {0.530 0.810 1.000 srgb} bind def
/col12 {0.000 0.560 0.000 srgb} bind def
/col13 {0.000 0.690 0.000 srgb} bind def
/col14 {0.000 0.820 0.000 srgb} bind def
/col15 {0.000 0.560 0.560 srgb} bind def
/col16 {0.000 0.690 0.690 srgb} bind def
/col17 {0.000 0.820 0.820 srgb} bind def
/col18 {0.560 0.000 0.000 srgb} bind def
/col19 {0.690 0.000 0.000 srgb} bind def
/col20 {0.820 0.000 0.000 srgb} bind def
/col21 {0.560 0.000 0.560 srgb} bind def
/col22 {0.690 0.000 0.690 srgb} bind def
/col23 {0.820 0.000 0.820 srgb} bind def
/col24 {0.500 0.190 0.000 srgb} bind def
/col25 {0.630 0.250 0.000 srgb} bind def
/col26 {0.750 0.380 0.000 srgb} bind def
/col27 {1.000 0.500 0.500 srgb} bind def
/col28 {1.000 0.630 0.630 srgb} bind def
/col29 {1.000 0.750 0.750 srgb} bind def
/col30 {1.000 0.880 0.880 srgb} bind def
/col31 {1.000 0.840 0.000 srgb} bind def

end
save
newpath 0 792 moveto 0 0 lineto 612 0 lineto 612 792 lineto closepath clip newpath
-10.7 18.5 translate
 90 rotate
1 -1 scale

/cp {closepath} bind def
/ef {eofill} bind def
/gr {grestore} bind def
/gs {gsave} bind def
/sa {save} bind def
/rs {restore} bind def
/l {lineto} bind def
/m {moveto} bind def
/rm {rmoveto} bind def
/n {newpath} bind def
/s {stroke} bind def
/sh {show} bind def
/slc {setlinecap} bind def
/slj {setlinejoin} bind def
/slw {setlinewidth} bind def
/srgb {setrgbcolor} bind def
/rot {rotate} bind def
/sc {scale} bind def
/sd {setdash} bind def
/ff {findfont} bind def
/sf {setfont} bind def
/scf {scalefont} bind def
/sw {stringwidth} bind def
/tr {translate} bind def
/tnt {dup dup currentrgbcolor
  4 -2 roll dup 1 exch sub 3 -1 roll mul add
  4 -2 roll dup 1 exch sub 3 -1 roll mul add
  4 -2 roll dup 1 exch sub 3 -1 roll mul add srgb}
  bind def
/shd {dup dup currentrgbcolor 4 -2 roll mul 4 -2 roll mul
  4 -2 roll mul srgb} bind def
/$F2psBegin {$F2psDict begin /$F2psEnteredState save def} def
/$F2psEnd {$F2psEnteredState restore end} def

$F2psBegin
10 setmiterlimit
 0.06000 0.06000 sc
%%Page: 1 1
%
% Fig objects follow
%
% Polyline
7.500 slw
n 2100 1050 m 2550 1050 l 2550 4425 l 2100 4425 l
 cp gs col0 s gr 
% Polyline
n 2625 1050 m 6675 1050 l 6675 1500 l 2625 1500 l
 cp gs col0 s gr 
% Polyline
n 2625 1500 m 6675 1500 l 6675 1875 l 2625 1875 l
 cp gs col0 s gr 
% Polyline
n 2625 1875 m 6675 1875 l 6675 2250 l 2625 2250 l
 cp gs col0 s gr 
% Polyline
n 2625 3300 m 6675 3300 l 6675 3675 l 2625 3675 l
 cp gs col0 s gr 
% Polyline
n 3300 3675 m
 3300 4725 l gs col0 s gr 
% Polyline
n 3900 3675 m
 3900 4650 l gs col0 s gr 
% Polyline
n 4500 3675 m
 4500 4650 l gs col0 s gr 
% Polyline
n 4950 3675 m
 4950 4650 l gs col0 s gr 
% Polyline
60.000 slw
n 5625 3675 m
 5625 4650 l gs col0 s gr 
% Polyline
7.500 slw
n 975 6525 m 2250 6525 l 2250 9000 l 975 9000 l
 cp gs col0 s gr 
% Polyline
n 2250 6900 m
 3525 6900 l gs col0 s gr 
% Polyline
n 2250 7050 m
 3525 7050 l gs col0 s gr 
% Polyline
60.000 slw
n 2250 7875 m
 3600 7875 l gs col0 s gr 
% Polyline
15.000 slw
 [90 45 15 45] 0 sd
n 600 5775 m
 12000 5775 l gs col0 s gr  [] 0 sd
% Polyline
7.500 slw
n 9375 6675 m 11175 6675 l 11175 9075 l 9375 9075 l
 cp gs col0 s gr 
% Polyline
n 1500 6525 m
 1500 5775 l gs col0 s gr 
% Polyline
n 10125 6675 m
 10125 5775 l gs col0 s gr 
% Polyline
n 6675 1200 m 8025 1200 l
 8025 5775 l gs col0 s gr 
% Polyline
n 6675 3450 m 7350 3450 l
 7350 5775 l gs col0 s gr 
/Times-Roman ff 240.00 scf sf
3000 1725 m
gs 1 -1 sc (Multichannel scaler) col0 sh gr
/Times-Roman ff 240.00 scf sf
3000 2175 m
gs 1 -1 sc (Pulse Programmable Generator) col0 sh gr
/Times-Roman ff 240.00 scf sf
3000 1350 m
gs 1 -1 sc (Power PC) col0 sh gr
/Times-Roman ff 240.00 scf sf
2325 1575 m
gs 1 -1 sc  0.9 rot (V) col0 sh gr
/Times-Roman ff 240.00 scf sf
2333 2145 m
gs 1 -1 sc  0.9 rot (M) col0 sh gr
/Times-Roman ff 240.00 scf sf
2341 2715 m
gs 1 -1 sc  0.9 rot (E) col0 sh gr
/Times-Roman ff 240.00 scf sf
2925 3600 m
gs 1 -1 sc (MVME 68040 \(camp\)) col0 sh gr
/Times-Roman ff 240.00 scf sf
3600 5025 m
gs 1 -1 sc (RS232) col0 sh gr
/Times-Roman ff 240.00 scf sf
5400 5100 m
gs 1 -1 sc (GPIB) col0 sh gr
/Times-Roman ff 240.00 scf sf
2475 7725 m
gs 1 -1 sc (GPIB) col0 sh gr
/Times-Roman ff 240.00 scf sf
2475 6825 m
gs 1 -1 sc (RS232) col0 sh gr
/Times-Roman ff 240.00 scf sf
750 5550 m
gs 1 -1 sc (Network) col0 sh gr
/Times-Roman ff 240.00 scf sf
1275 7650 m
gs 1 -1 sc (PC) col0 sh gr
/Times-Roman ff 240.00 scf sf
9750 7875 m
gs 1 -1 sc (PC) col0 sh gr
/Times-Roman ff 240.00 scf sf
1050 9300 m
gs 1 -1 sc (midtis07) col0 sh gr
/Times-Roman ff 240.00 scf sf
9525 9450 m
gs 1 -1 sc (isdaq01) col0 sh gr
$F2psEnd
rs
showpage
